module sync_worker_local_test

go 1.16

require (
	github.com/gin-gonic/gin v1.7.3 // indirect
	github.com/go-playground/validator/v10 v10.9.0 // indirect
	github.com/golang/protobuf v1.5.2 // indirect
	github.com/json-iterator/go v1.1.11 // indirect
	github.com/mattn/go-isatty v0.0.13 // indirect
	github.com/modern-go/concurrent v0.0.0-20180306012644-bacd9c7ef1dd // indirect
	github.com/modern-go/reflect2 v1.0.1 // indirect
	github.com/ugorji/go v1.2.6 // indirect
	gitlab.migoinc.com/migotv/golang v0.0.0-20210806070200-7e23f1a6e591 // indirect
	golang.org/x/sys v0.0.0-20210809222454-d867a43fc93e // indirect
	google.golang.org/protobuf v1.27.1 // indirect
	gopkg.in/yaml.v2 v2.4.0 // indirect
)
